{
    "/js/manifest.js": "/js/manifest.js",
    "/js/app.js": "/js/app.js",
    "/css/app.css": "/css/app.css",
    "/js/libs.js": "/js/libs.js",
    "/js/main.js": "/js/main.js",
    "/js/vendor.js": "/js/vendor.js",
    "/css/style.css": "/css/style.css"
}
